12/11/2010 17.48.57 - INFO: Scanning in progress ....
12/11/2010 17.49.00 - INFO: Unsupported capability FeederLoaded
12/11/2010 17.49.11 - INFO: Stop Scanning .....
12/11/2010 17.50.01 - INFO: Scanning in progress ....
12/11/2010 17.50.02 - INFO: Unsupported capability FeederLoaded
12/11/2010 17.50.06 - INFO: Stop Scanning .....
12/11/2010 17.50.57 - INFO: Stop Scanning .....
12/11/2010 17.50.57 - INFO: Stop Scanning .....
12/11/2010 17.50.57 - INFO: Scanning in progress ....
12/11/2010 17.51.00 - INFO: Unsupported capability FeederLoaded
12/11/2010 17.51.03 - INFO: Stop Scanning .....
12/11/2010 17.51.57 - INFO: Stop Scanning .....
12/11/2010 17.52.21 - INFO: Scanning in progress ....
12/11/2010 17.52.23 - INFO: Unsupported capability FeederLoaded
12/11/2010 17.52.27 - INFO: Stop Scanning .....
12/11/2010 17.52.58 - INFO: Scanning in progress ....
12/11/2010 17.53.08 - INFO: Stop Scanning .....
15/11/2010 8.22.46 - INFO: Stop Scanning .....
15/11/2010 8.22.52 - INFO: Unsupported capability FeederLoaded
15/11/2010 8.23.46 - INFO: Stop Scanning .....
15/11/2010 8.42.09 - INFO: Stop Scanning .....
15/11/2010 8.42.19 - INFO: Scanning in progress ....
15/11/2010 8.42.22 - INFO: Unsupported capability FeederLoaded
15/11/2010 8.43.17 - INFO: Stop Scanning .....
15/11/2010 8.43.19 - INFO: Stop Scanning .....
15/11/2010 8.43.19 - INFO: Stop Scanning .....
15/11/2010 8.43.19 - INFO: Stop Scanning .....
15/11/2010 8.43.23 - INFO: Stop Scanning .....
15/11/2010 8.43.23 - INFO: Scanning in progress ....
15/11/2010 8.43.25 - INFO: Unsupported capability FeederLoaded
15/11/2010 9.05.31 - INFO: Scanning in progress ....
15/11/2010 9.05.35 - INFO: Unsupported capability FeederLoaded
15/11/2010 9.06.30 - INFO: Stop Scanning .....
15/11/2010 9.07.14 - INFO: Stop Scanning .....
15/11/2010 9.07.23 - INFO: Scanning in progress ....
15/11/2010 9.07.28 - INFO: Unsupported capability FeederLoaded
15/11/2010 9.07.32 - INFO: Stop Scanning .....
15/11/2010 9.07.33 - INFO: Stop Scanning .....
15/11/2010 9.07.42 - INFO: Stop Scanning .....
15/11/2010 9.08.01 - INFO: Scanning in progress ....
15/11/2010 9.08.04 - INFO: Unsupported capability FeederLoaded
15/11/2010 9.08.07 - INFO: Stop Scanning .....
15/11/2010 9.08.07 - INFO: Stop Scanning .....
15/11/2010 10.22.43 - INFO: Scanning in progress ....
15/11/2010 10.22.52 - INFO: Stop Scanning .....
15/11/2010 10.24.25 - INFO: Stop Scanning .....
15/11/2010 10.24.48 - INFO: Stop Scanning .....
15/11/2010 10.24.48 - INFO: Scanning in progress ....
15/11/2010 10.24.50 - INFO: Exception of type 'TwainDotNet.FeederEmptyException' was thrown.
15/11/2010 10.25.07 - INFO: Stop Scanning .....
15/11/2010 10.25.59 - INFO: Scanning in progress ....
15/11/2010 10.26.02 - INFO: Exception of type 'TwainDotNet.FeederEmptyException' was thrown.
15/11/2010 10.26.12 - INFO: Stop Scanning .....
15/11/2010 10.27.56 - INFO: Scanning in progress ....
15/11/2010 10.27.58 - INFO: Exception of type 'TwainDotNet.FeederEmptyException' was thrown.
15/11/2010 10.28.13 - INFO: Stop Scanning .....
15/11/2010 10.41.12 - INFO: Scanning in progress ....
15/11/2010 10.41.21 - INFO: Stop Scanning .....
15/11/2010 10.46.10 - INFO: Scanning in progress ....
15/11/2010 10.46.19 - INFO: Stop Scanning .....
15/11/2010 10.52.56 - INFO: Stop Scanning .....
15/11/2010 11.07.58 - INFO: Scanning in progress ....
15/11/2010 11.08.00 - INFO: Unsupported capability FeederLoaded
15/11/2010 11.08.05 - INFO: Stop Scanning .....
15/11/2010 11.08.38 - INFO: Scanning in progress ....
15/11/2010 11.08.47 - INFO: Stop Scanning .....
15/11/2010 11.08.49 - INFO: Stop Scanning .....
15/11/2010 11.09.14 - INFO: Stop Scanning .....
15/11/2010 11.30.17 - INFO: Scanning in progress ....
15/11/2010 11.30.25 - INFO: Stop Scanning .....
15/11/2010 11.45.19 - INFO: Stop Scanning .....
15/11/2010 11.46.14 - INFO: Stop Scanning .....
15/11/2010 11.47.13 - INFO: Stop Scanning .....
15/11/2010 11.47.34 - INFO: Stop Scanning .....
15/11/2010 11.47.57 - INFO: Stop Scanning .....
15/11/2010 11.48.19 - INFO: Stop Scanning .....
15/11/2010 11.48.22 - INFO: Stop Scanning .....
15/11/2010 11.48.23 - INFO: Stop Scanning .....
15/11/2010 11.48.25 - INFO: Stop Scanning .....
15/11/2010 11.49.58 - INFO: Stop Scanning .....
15/11/2010 11.50.47 - INFO: Stop Scanning .....
15/11/2010 11.50.48 - INFO: Stop Scanning .....
15/11/2010 11.50.52 - INFO: Stop Scanning .....
15/11/2010 11.51.09 - INFO: Stop Scanning .....
15/11/2010 11.51.11 - INFO: Stop Scanning .....
15/11/2010 11.51.31 - INFO: Stop Scanning .....
15/11/2010 11.51.43 - INFO: Stop Scanning .....
15/11/2010 11.52.25 - INFO: Stop Scanning .....
15/11/2010 11.52.55 - INFO: Stop Scanning .....
15/11/2010 11.52.55 - INFO: Stop Scanning .....
15/11/2010 11.53.27 - INFO: Stop Scanning .....
15/11/2010 11.54.16 - INFO: Stop Scanning .....
15/11/2010 11.54.35 - INFO: Stop Scanning .....
15/11/2010 11.54.53 - INFO: Stop Scanning .....
15/11/2010 11.55.01 - INFO: Stop Scanning .....
15/11/2010 11.55.34 - INFO: Stop Scanning .....
15/11/2010 11.55.37 - INFO: Stop Scanning .....
15/11/2010 11.55.45 - INFO: Stop Scanning .....
15/11/2010 11.55.51 - INFO: Stop Scanning .....
15/11/2010 11.56.48 - INFO: Stop Scanning .....
15/11/2010 11.56.51 - INFO: Stop Scanning .....
15/11/2010 11.56.54 - INFO: Stop Scanning .....
15/11/2010 11.57.00 - INFO: Stop Scanning .....
15/11/2010 11.57.04 - INFO: Stop Scanning .....
15/11/2010 12.01.09 - INFO: Stop Scanning .....
15/11/2010 12.01.53 - INFO: Stop Scanning .....
15/11/2010 12.02.17 - INFO: Stop Scanning .....
15/11/2010 12.02.17 - INFO: Stop Scanning .....
15/11/2010 12.02.19 - INFO: Stop Scanning .....
15/11/2010 12.02.48 - INFO: Stop Scanning .....
15/11/2010 12.02.53 - INFO: Stop Scanning .....
15/11/2010 12.02.54 - INFO: Stop Scanning .....
15/11/2010 12.02.54 - INFO: Stop Scanning .....
15/11/2010 12.02.58 - INFO: Stop Scanning .....
15/11/2010 12.04.38 - INFO: Stop Scanning .....
15/11/2010 12.04.51 - INFO: Stop Scanning .....
15/11/2010 12.05.00 - INFO: Stop Scanning .....
15/11/2010 12.06.06 - INFO: Stop Scanning .....
15/11/2010 12.06.06 - INFO: Stop Scanning .....
15/11/2010 12.06.22 - INFO: Stop Scanning .....
15/11/2010 12.07.14 - INFO: Stop Scanning .....
15/11/2010 12.07.38 - INFO: Stop Scanning .....
15/11/2010 12.07.41 - INFO: Stop Scanning .....
15/11/2010 12.08.46 - INFO: Stop Scanning .....
15/11/2010 12.08.49 - INFO: Stop Scanning .....
15/11/2010 12.08.51 - INFO: Stop Scanning .....
15/11/2010 12.09.37 - INFO: Stop Scanning .....
15/11/2010 12.10.01 - INFO: Stop Scanning .....
15/11/2010 12.10.30 - INFO: Stop Scanning .....
15/11/2010 12.10.33 - INFO: Stop Scanning .....
15/11/2010 12.10.45 - INFO: Stop Scanning .....
15/11/2010 12.11.28 - INFO: Stop Scanning .....
15/11/2010 12.11.30 - INFO: Stop Scanning .....
15/11/2010 12.14.30 - INFO: Stop Scanning .....
15/11/2010 12.19.15 - INFO: Stop Scanning .....
15/11/2010 12.19.36 - INFO: Stop Scanning .....
15/11/2010 12.24.07 - INFO: Stop Scanning .....
15/11/2010 12.24.08 - INFO: Stop Scanning .....
15/11/2010 12.26.18 - INFO: Stop Scanning .....
15/11/2010 12.28.09 - INFO: Stop Scanning .....
15/11/2010 12.28.58 - INFO: Stop Scanning .....
15/11/2010 12.29.25 - INFO: Stop Scanning .....
15/11/2010 12.29.49 - INFO: Stop Scanning .....
15/11/2010 12.29.51 - INFO: Stop Scanning .....
15/11/2010 12.29.52 - INFO: Stop Scanning .....
15/11/2010 12.30.03 - INFO: Stop Scanning .....
15/11/2010 12.30.13 - INFO: Stop Scanning .....
15/11/2010 12.30.17 - INFO: Stop Scanning .....
15/11/2010 12.30.42 - INFO: Stop Scanning .....
15/11/2010 12.30.54 - INFO: Stop Scanning .....
15/11/2010 12.30.55 - INFO: Stop Scanning .....
15/11/2010 12.31.11 - INFO: Stop Scanning .....
15/11/2010 12.31.22 - INFO: Stop Scanning .....
15/11/2010 12.31.48 - INFO: Stop Scanning .....
15/11/2010 12.32.05 - INFO: Stop Scanning .....
15/11/2010 14.53.53 - INFO: Stop Scanning .....
15/11/2010 14.54.36 - INFO: Stop Scanning .....
15/11/2010 14.54.38 - INFO: Stop Scanning .....
15/11/2010 14.56.32 - INFO: Stop Scanning .....
15/11/2010 14.57.12 - INFO: Stop Scanning .....
15/11/2010 14.57.14 - INFO: Stop Scanning .....
15/11/2010 14.57.16 - INFO: Stop Scanning .....
15/11/2010 14.57.25 - INFO: Stop Scanning .....
15/11/2010 14.57.37 - INFO: Stop Scanning .....
15/11/2010 14.57.38 - INFO: Stop Scanning .....
15/11/2010 14.58.22 - INFO: Stop Scanning .....
15/11/2010 14.58.23 - INFO: Stop Scanning .....
15/11/2010 14.59.51 - INFO: Stop Scanning .....
15/11/2010 14.59.53 - INFO: Stop Scanning .....
15/11/2010 15.01.56 - INFO: Stop Scanning .....
15/11/2010 15.01.57 - INFO: Stop Scanning .....
15/11/2010 15.02.19 - INFO: Stop Scanning .....
15/11/2010 15.02.42 - INFO: Stop Scanning .....
15/11/2010 15.02.43 - INFO: Stop Scanning .....
15/11/2010 15.06.44 - INFO: Stop Scanning .....
15/11/2010 15.06.45 - INFO: Stop Scanning .....
15/11/2010 15.07.33 - INFO: Stop Scanning .....
15/11/2010 15.07.36 - INFO: Stop Scanning .....
15/11/2010 15.08.03 - INFO: Stop Scanning .....
15/11/2010 15.08.51 - INFO: Stop Scanning .....
15/11/2010 15.08.51 - INFO: Stop Scanning .....
15/11/2010 15.10.46 - INFO: Stop Scanning .....
15/11/2010 15.10.53 - INFO: Stop Scanning .....
15/11/2010 15.10.53 - INFO: Stop Scanning .....
15/11/2010 15.11.07 - INFO: Stop Scanning .....
15/11/2010 15.11.18 - INFO: Stop Scanning .....
15/11/2010 15.11.37 - INFO: Stop Scanning .....
15/11/2010 15.11.59 - INFO: Stop Scanning .....
15/11/2010 15.12.14 - INFO: Stop Scanning .....
15/11/2010 15.12.14 - INFO: Stop Scanning .....
15/11/2010 15.13.01 - INFO: Stop Scanning .....
15/11/2010 15.13.25 - INFO: Stop Scanning .....
15/11/2010 15.13.31 - INFO: Stop Scanning .....
15/11/2010 15.13.36 - INFO: Stop Scanning .....
15/11/2010 15.14.42 - INFO: Stop Scanning .....
15/11/2010 15.14.42 - INFO: Scanning in progress ....
15/11/2010 15.14.46 - INFO: Unsupported capability FeederLoaded
15/11/2010 15.14.50 - INFO: Stop Scanning .....
15/11/2010 15.14.50 - INFO: Stop Scanning .....
15/11/2010 15.14.57 - INFO: Stop Scanning .....
15/11/2010 15.15.34 - INFO: Stop Scanning .....
15/11/2010 15.15.36 - INFO: Stop Scanning .....
15/11/2010 15.19.37 - INFO: Stop Scanning .....
15/11/2010 15.19.40 - INFO: Stop Scanning .....
15/11/2010 15.19.44 - INFO: Stop Scanning .....
15/11/2010 15.19.44 - INFO: Stop Scanning .....
15/11/2010 15.19.45 - INFO: Stop Scanning .....
15/11/2010 15.26.12 - INFO: Stop Scanning .....
15/11/2010 15.26.12 - INFO: Scanning in progress ....
15/11/2010 15.26.20 - INFO: Stop Scanning .....
15/11/2010 15.26.34 - INFO: Stop Scanning .....
15/11/2010 15.26.38 - INFO: Stop Scanning .....
15/11/2010 15.27.12 - INFO: Stop Scanning .....
15/11/2010 15.27.12 - INFO: Stop Scanning .....
15/11/2010 15.27.20 - INFO: Scanning in progress ....
15/11/2010 15.27.27 - INFO: Stop Scanning .....
15/11/2010 15.27.27 - INFO: Stop Scanning .....
15/11/2010 15.27.33 - INFO: Stop Scanning .....
15/11/2010 15.27.33 - INFO: Stop Scanning .....
15/11/2010 15.32.26 - INFO: Stop Scanning .....
15/11/2010 15.33.05 - INFO: Stop Scanning .....
15/11/2010 15.33.14 - INFO: Stop Scanning .....
15/11/2010 15.33.55 - INFO: Stop Scanning .....
15/11/2010 15.34.37 - INFO: Stop Scanning .....
15/11/2010 15.35.29 - INFO: Stop Scanning .....
15/11/2010 15.35.44 - INFO: Stop Scanning .....
15/11/2010 15.35.44 - INFO: Stop Scanning .....
15/11/2010 15.36.02 - INFO: Stop Scanning .....
15/11/2010 15.36.08 - INFO: Stop Scanning .....
15/11/2010 15.36.36 - INFO: Stop Scanning .....
15/11/2010 15.36.39 - INFO: Stop Scanning .....
15/11/2010 15.36.50 - INFO: Stop Scanning .....
15/11/2010 15.36.54 - INFO: Stop Scanning .....
15/11/2010 15.37.37 - INFO: Stop Scanning .....
15/11/2010 15.37.52 - INFO: Stop Scanning .....
15/11/2010 15.37.59 - INFO: Stop Scanning .....
15/11/2010 15.38.00 - INFO: Stop Scanning .....
15/11/2010 15.39.13 - INFO: Stop Scanning .....
15/11/2010 15.39.14 - INFO: Stop Scanning .....
15/11/2010 15.40.17 - INFO: Stop Scanning .....
15/11/2010 15.41.17 - INFO: Stop Scanning .....
15/11/2010 15.41.37 - INFO: Stop Scanning .....
15/11/2010 15.41.38 - INFO: Stop Scanning .....
15/11/2010 15.58.46 - INFO: Stop Scanning .....
15/11/2010 15.59.32 - INFO: Stop Scanning .....
15/11/2010 15.59.33 - INFO: Stop Scanning .....
15/11/2010 16.01.45 - INFO: Stop Scanning .....
15/11/2010 16.03.40 - INFO: Stop Scanning .....
15/11/2010 16.04.15 - INFO: Stop Scanning .....
15/11/2010 16.05.27 - INFO: Stop Scanning .....
15/11/2010 16.05.27 - INFO: Stop Scanning .....
15/11/2010 16.07.26 - INFO: Stop Scanning .....
15/11/2010 16.07.52 - INFO: Stop Scanning .....
15/11/2010 16.08.05 - INFO: Stop Scanning .....
15/11/2010 16.08.20 - INFO: Stop Scanning .....
15/11/2010 16.08.45 - INFO: Stop Scanning .....
15/11/2010 16.09.07 - INFO: Stop Scanning .....
15/11/2010 16.09.34 - INFO: Stop Scanning .....
15/11/2010 16.10.42 - INFO: Stop Scanning .....
15/11/2010 16.10.42 - INFO: Stop Scanning .....
15/11/2010 16.12.02 - INFO: Stop Scanning .....
15/11/2010 16.12.04 - INFO: Stop Scanning .....
15/11/2010 16.12.32 - INFO: Stop Scanning .....
15/11/2010 16.12.42 - INFO: Stop Scanning .....
15/11/2010 16.12.42 - INFO: Stop Scanning .....
15/11/2010 16.12.42 - INFO: Stop Scanning .....
15/11/2010 16.12.53 - INFO: Stop Scanning .....
15/11/2010 16.13.15 - INFO: Stop Scanning .....
15/11/2010 16.13.46 - INFO: Stop Scanning .....
15/11/2010 16.14.42 - INFO: Stop Scanning .....
15/11/2010 16.14.44 - INFO: Stop Scanning .....
15/11/2010 16.15.08 - INFO: Stop Scanning .....
15/11/2010 16.15.10 - INFO: Stop Scanning .....
15/11/2010 16.16.36 - INFO: Stop Scanning .....
15/11/2010 16.17.02 - INFO: Stop Scanning .....
15/11/2010 16.17.04 - INFO: Stop Scanning .....
15/11/2010 16.17.37 - INFO: Stop Scanning .....
15/11/2010 16.18.23 - INFO: Stop Scanning .....
15/11/2010 16.19.27 - INFO: Stop Scanning .....
15/11/2010 16.20.44 - INFO: Stop Scanning .....
15/11/2010 16.20.44 - INFO: Stop Scanning .....
15/11/2010 16.21.48 - INFO: Stop Scanning .....
15/11/2010 16.23.02 - INFO: Stop Scanning .....
15/11/2010 16.23.02 - INFO: Stop Scanning .....
15/11/2010 16.24.15 - INFO: Stop Scanning .....
15/11/2010 16.24.15 - INFO: Stop Scanning .....
15/11/2010 16.24.15 - INFO: Stop Scanning .....
15/11/2010 16.26.20 - INFO: Stop Scanning .....
15/11/2010 16.26.22 - INFO: Stop Scanning .....
15/11/2010 16.27.12 - INFO: Stop Scanning .....
15/11/2010 16.28.23 - INFO: Stop Scanning .....
15/11/2010 16.28.36 - INFO: Stop Scanning .....
15/11/2010 16.28.53 - INFO: Stop Scanning .....
15/11/2010 16.28.54 - INFO: Stop Scanning .....
15/11/2010 16.29.45 - INFO: Stop Scanning .....
15/11/2010 16.30.12 - INFO: Stop Scanning .....
15/11/2010 16.31.20 - INFO: Stop Scanning .....
15/11/2010 16.31.20 - INFO: Stop Scanning .....
15/11/2010 16.31.20 - INFO: Stop Scanning .....
15/11/2010 16.31.56 - INFO: Stop Scanning .....
15/11/2010 16.32.10 - INFO: Stop Scanning .....
15/11/2010 16.33.21 - INFO: Stop Scanning .....
15/11/2010 16.33.30 - INFO: Stop Scanning .....
15/11/2010 16.33.44 - INFO: Stop Scanning .....
15/11/2010 16.33.55 - INFO: Stop Scanning .....
15/11/2010 16.34.13 - INFO: Stop Scanning .....
15/11/2010 16.34.15 - INFO: Stop Scanning .....
15/11/2010 16.34.47 - INFO: Stop Scanning .....
15/11/2010 16.36.51 - INFO: Stop Scanning .....
15/11/2010 16.37.12 - INFO: Stop Scanning .....
15/11/2010 16.37.49 - INFO: Stop Scanning .....
15/11/2010 16.38.01 - INFO: Stop Scanning .....
15/11/2010 16.41.26 - INFO: Stop Scanning .....
15/11/2010 16.41.28 - INFO: Stop Scanning .....
15/11/2010 16.44.51 - INFO: Stop Scanning .....
15/11/2010 16.44.52 - INFO: Stop Scanning .....
15/11/2010 16.44.54 - INFO: Stop Scanning .....
15/11/2010 16.45.44 - INFO: Stop Scanning .....
15/11/2010 16.45.47 - INFO: Stop Scanning .....
15/11/2010 16.45.55 - INFO: Stop Scanning .....
15/11/2010 16.45.58 - INFO: Stop Scanning .....
15/11/2010 16.46.01 - INFO: Stop Scanning .....
15/11/2010 16.46.04 - INFO: Stop Scanning .....
15/11/2010 16.46.29 - INFO: Stop Scanning .....
15/11/2010 16.46.31 - INFO: Stop Scanning .....
15/11/2010 16.46.35 - INFO: Stop Scanning .....
15/11/2010 16.47.02 - INFO: Stop Scanning .....
15/11/2010 16.47.03 - INFO: Stop Scanning .....
15/11/2010 16.48.21 - INFO: Stop Scanning .....
15/11/2010 16.51.27 - INFO: Stop Scanning .....
15/11/2010 16.51.27 - INFO: Stop Scanning .....
15/11/2010 16.51.27 - INFO: Stop Scanning .....
15/11/2010 16.51.28 - INFO: Stop Scanning .....
15/11/2010 17.00.50 - INFO: Stop Scanning .....
15/11/2010 17.00.51 - INFO: Stop Scanning .....
15/11/2010 17.01.24 - INFO: Stop Scanning .....
15/11/2010 17.01.24 - INFO: Stop Scanning .....
15/11/2010 17.01.26 - INFO: Stop Scanning .....
15/11/2010 17.01.34 - INFO: Stop Scanning .....
15/11/2010 17.01.58 - INFO: Stop Scanning .....
15/11/2010 17.02.00 - INFO: Stop Scanning .....
15/11/2010 17.02.07 - INFO: Stop Scanning .....
15/11/2010 17.03.05 - INFO: Stop Scanning .....
15/11/2010 17.03.07 - INFO: Stop Scanning .....
15/11/2010 17.03.23 - INFO: Stop Scanning .....
15/11/2010 17.04.02 - INFO: Stop Scanning .....
15/11/2010 17.05.19 - INFO: Stop Scanning .....
15/11/2010 17.05.38 - INFO: Stop Scanning .....
15/11/2010 17.05.42 - INFO: Stop Scanning .....
15/11/2010 17.05.42 - INFO: Stop Scanning .....
15/11/2010 17.06.16 - INFO: Stop Scanning .....
15/11/2010 17.06.33 - INFO: Stop Scanning .....
15/11/2010 17.06.36 - INFO: Stop Scanning .....
15/11/2010 17.07.15 - INFO: Stop Scanning .....
15/11/2010 17.08.22 - INFO: Stop Scanning .....
15/11/2010 17.08.22 - INFO: Stop Scanning .....
15/11/2010 17.08.36 - INFO: Stop Scanning .....
15/11/2010 17.08.56 - INFO: Stop Scanning .....
15/11/2010 17.08.58 - INFO: Stop Scanning .....
15/11/2010 17.09.30 - INFO: Stop Scanning .....
15/11/2010 17.09.34 - INFO: Stop Scanning .....
15/11/2010 17.12.17 - INFO: Stop Scanning .....
15/11/2010 17.12.48 - INFO: Stop Scanning .....
15/11/2010 17.13.09 - INFO: Stop Scanning .....
15/11/2010 17.13.23 - INFO: Stop Scanning .....
15/11/2010 17.15.21 - INFO: Stop Scanning .....
15/11/2010 17.15.30 - INFO: Stop Scanning .....
15/11/2010 17.15.31 - INFO: Stop Scanning .....
15/11/2010 17.15.41 - INFO: Stop Scanning .....
15/11/2010 17.15.44 - INFO: Stop Scanning .....
15/11/2010 17.15.50 - INFO: Stop Scanning .....
15/11/2010 17.15.53 - INFO: Stop Scanning .....
15/11/2010 17.15.55 - INFO: Stop Scanning .....
15/11/2010 17.16.00 - INFO: Stop Scanning .....
15/11/2010 17.16.00 - INFO: Stop Scanning .....
15/11/2010 17.17.03 - INFO: Stop Scanning .....
15/11/2010 17.17.07 - INFO: Stop Scanning .....
15/11/2010 17.18.11 - INFO: Stop Scanning .....
15/11/2010 17.18.13 - INFO: Stop Scanning .....
15/11/2010 17.18.26 - INFO: Scanning in progress ....
15/11/2010 17.18.28 - INFO: Unsupported capability FeederLoaded
15/11/2010 17.18.34 - INFO: Stop Scanning .....
15/11/2010 17.19.01 - INFO: Scanning in progress ....
15/11/2010 17.19.03 - INFO: Unsupported capability FeederLoaded
15/11/2010 17.20.46 - INFO: Stop Scanning .....
15/11/2010 17.20.46 - INFO: Scanning in progress ....
15/11/2010 17.20.51 - INFO: Unsupported capability FeederLoaded
15/11/2010 17.20.56 - INFO: Stop Scanning .....
15/11/2010 17.21.07 - INFO: Stop Scanning .....
15/11/2010 17.21.10 - INFO: Stop Scanning .....
15/11/2010 17.21.12 - INFO: Stop Scanning .....
15/11/2010 17.21.14 - INFO: Stop Scanning .....
15/11/2010 17.22.20 - INFO: Stop Scanning .....
15/11/2010 17.22.41 - INFO: Stop Scanning .....
15/11/2010 17.22.43 - INFO: Stop Scanning .....
15/11/2010 17.22.43 - INFO: Stop Scanning .....
15/11/2010 17.23.10 - INFO: Stop Scanning .....
15/11/2010 17.23.12 - INFO: Stop Scanning .....
15/11/2010 17.23.14 - INFO: Stop Scanning .....
15/11/2010 17.23.16 - INFO: Stop Scanning .....
15/11/2010 17.23.18 - INFO: Stop Scanning .....
15/11/2010 17.24.26 - INFO: Stop Scanning .....
15/11/2010 17.24.30 - INFO: Stop Scanning .....
15/11/2010 17.24.36 - INFO: Stop Scanning .....
15/11/2010 17.24.36 - INFO: Stop Scanning .....
15/11/2010 17.24.43 - INFO: Stop Scanning .....
15/11/2010 17.24.44 - INFO: Stop Scanning .....
15/11/2010 17.25.17 - INFO: Stop Scanning .....
15/11/2010 17.26.21 - INFO: Stop Scanning .....
15/11/2010 17.26.21 - INFO: Stop Scanning .....
15/11/2010 17.26.37 - INFO: Stop Scanning .....
15/11/2010 17.26.37 - INFO: Stop Scanning .....
15/11/2010 17.26.37 - INFO: Stop Scanning .....
15/11/2010 17.26.40 - INFO: Stop Scanning .....
15/11/2010 17.26.46 - INFO: Stop Scanning .....
15/11/2010 17.26.46 - INFO: Stop Scanning .....
15/11/2010 17.26.49 - INFO: Stop Scanning .....
15/11/2010 17.27.35 - INFO: Stop Scanning .....
15/11/2010 17.27.46 - INFO: Stop Scanning .....
15/11/2010 17.27.46 - INFO: Scanning in progress ....
15/11/2010 17.27.47 - INFO: Unsupported capability FeederLoaded
15/11/2010 17.27.51 - INFO: Stop Scanning .....
15/11/2010 17.27.52 - INFO: Stop Scanning .....
15/11/2010 17.31.46 - INFO: Stop Scanning .....
15/11/2010 17.33.04 - INFO: Stop Scanning .....
15/11/2010 17.33.04 - INFO: Stop Scanning .....
15/11/2010 17.33.05 - INFO: Stop Scanning .....
15/11/2010 17.33.24 - INFO: Stop Scanning .....
15/11/2010 17.33.24 - INFO: Stop Scanning .....
15/11/2010 17.33.29 - INFO: Stop Scanning .....
15/11/2010 17.33.36 - INFO: Stop Scanning .....
15/11/2010 17.33.36 - INFO: Stop Scanning .....
15/11/2010 17.33.47 - INFO: Stop Scanning .....
15/11/2010 17.34.37 - INFO: Stop Scanning .....
15/11/2010 17.34.37 - INFO: Stop Scanning .....
15/11/2010 17.34.38 - INFO: Stop Scanning .....
15/11/2010 17.34.45 - INFO: Stop Scanning .....
15/11/2010 17.35.00 - INFO: Stop Scanning .....
15/11/2010 17.35.02 - INFO: Stop Scanning .....
15/11/2010 17.35.55 - INFO: Stop Scanning .....
15/11/2010 17.35.57 - INFO: Stop Scanning .....
15/11/2010 17.36.00 - INFO: Stop Scanning .....
15/11/2010 17.36.05 - INFO: Stop Scanning .....
15/11/2010 17.36.46 - INFO: Stop Scanning .....
15/11/2010 17.36.57 - INFO: Stop Scanning .....
15/11/2010 17.37.00 - INFO: Scanning in progress ....
15/11/2010 17.37.02 - INFO: Unsupported capability FeederLoaded
15/11/2010 17.37.06 - INFO: Stop Scanning .....
15/11/2010 17.38.40 - INFO: Scanning in progress ....
15/11/2010 17.38.42 - INFO: Unsupported capability FeederLoaded
15/11/2010 17.38.46 - INFO: Stop Scanning .....
15/11/2010 17.39.25 - INFO: Stop Scanning .....
15/11/2010 17.39.25 - INFO: Stop Scanning .....
15/11/2010 17.39.27 - INFO: Stop Scanning .....
15/11/2010 17.39.32 - INFO: Scanning in progress ....
15/11/2010 17.39.33 - INFO: Unsupported capability FeederLoaded
15/11/2010 17.39.36 - INFO: Stop Scanning .....
15/11/2010 17.41.10 - INFO: Stop Scanning .....
15/11/2010 17.41.13 - INFO: Stop Scanning .....
15/11/2010 17.41.36 - INFO: Stop Scanning .....
15/11/2010 17.41.48 - INFO: Stop Scanning .....
15/11/2010 17.42.14 - INFO: Stop Scanning .....
15/11/2010 17.42.50 - INFO: Stop Scanning .....
15/11/2010 17.43.02 - INFO: Stop Scanning .....
15/11/2010 17.43.28 - INFO: Stop Scanning .....
15/11/2010 17.43.29 - INFO: Stop Scanning .....
15/11/2010 17.43.48 - INFO: Stop Scanning .....
15/11/2010 17.43.52 - INFO: Scanning in progress ....
15/11/2010 17.43.53 - INFO: Unsupported capability FeederLoaded
15/11/2010 17.43.57 - INFO: Stop Scanning .....
15/11/2010 17.43.59 - INFO: Stop Scanning .....
15/11/2010 17.44.50 - INFO: Scanning in progress ....
15/11/2010 17.44.52 - INFO: Unsupported capability FeederLoaded
15/11/2010 17.44.55 - INFO: Stop Scanning .....
15/11/2010 17.45.26 - INFO: Stop Scanning .....
15/11/2010 17.45.42 - INFO: Stop Scanning .....
15/11/2010 17.45.42 - INFO: Stop Scanning .....
15/11/2010 17.46.05 - INFO: Stop Scanning .....
15/11/2010 17.46.10 - INFO: Stop Scanning .....
15/11/2010 17.46.39 - INFO: Stop Scanning .....
15/11/2010 17.47.03 - INFO: Stop Scanning .....
15/11/2010 17.47.04 - INFO: Stop Scanning .....
15/11/2010 17.47.10 - INFO: Stop Scanning .....
15/11/2010 17.47.31 - INFO: Stop Scanning .....
15/11/2010 17.48.25 - INFO: Stop Scanning .....
15/11/2010 17.48.58 - INFO: Stop Scanning .....
15/11/2010 17.49.00 - INFO: Scanning in progress ....
15/11/2010 17.49.02 - INFO: Unsupported capability FeederLoaded
15/11/2010 17.49.06 - INFO: Stop Scanning .....
15/11/2010 17.49.07 - INFO: Stop Scanning .....
15/11/2010 17.49.19 - INFO: Scanning in progress ....
15/11/2010 17.49.20 - INFO: Unsupported capability FeederLoaded
15/11/2010 17.49.23 - INFO: Stop Scanning .....
15/11/2010 17.53.30 - INFO: Scanning in progress ....
15/11/2010 17.53.33 - INFO: Unsupported capability FeederLoaded
15/11/2010 17.53.37 - INFO: Stop Scanning .....
15/11/2010 17.53.44 - INFO: Stop Scanning .....
15/11/2010 17.53.44 - INFO: Scanning in progress ....
15/11/2010 17.53.46 - INFO: Unsupported capability FeederLoaded
15/11/2010 17.53.49 - INFO: Stop Scanning .....
15/11/2010 17.54.44 - INFO: Stop Scanning .....
15/11/2010 17.54.51 - INFO: Scanning in progress ....
15/11/2010 17.54.53 - INFO: Unsupported capability FeederLoaded
15/11/2010 17.54.57 - INFO: Stop Scanning .....
15/11/2010 17.55.20 - INFO: Stop Scanning .....
15/11/2010 17.55.20 - INFO: Stop Scanning .....
15/11/2010 17.55.20 - INFO: Stop Scanning .....
15/11/2010 17.55.44 - INFO: Stop Scanning .....
15/11/2010 17.55.54 - INFO: Scanning in progress ....
15/11/2010 17.56.06 - INFO: Stop Scanning .....
15/11/2010 17.56.16 - INFO: Stop Scanning .....
15/11/2010 17.58.27 - INFO: Stop Scanning .....
15/11/2010 17.58.37 - INFO: Stop Scanning .....
15/11/2010 17.58.53 - INFO: Stop Scanning .....
15/11/2010 17.59.31 - INFO: Stop Scanning .....
15/11/2010 17.59.40 - INFO: Stop Scanning .....
15/11/2010 18.00.07 - INFO: Stop Scanning .....
15/11/2010 18.00.19 - INFO: Stop Scanning .....
15/11/2010 18.01.03 - INFO: Stop Scanning .....
15/11/2010 18.01.03 - INFO: Stop Scanning .....
15/11/2010 18.01.18 - INFO: Stop Scanning .....
15/11/2010 18.01.28 - INFO: Stop Scanning .....
15/11/2010 18.01.53 - INFO: Stop Scanning .....
15/11/2010 18.02.35 - INFO: Stop Scanning .....
15/11/2010 18.03.09 - INFO: Stop Scanning .....
15/11/2010 18.03.09 - INFO: Stop Scanning .....
15/11/2010 18.03.11 - INFO: Stop Scanning .....
15/11/2010 18.03.18 - INFO: Stop Scanning .....
15/11/2010 18.03.31 - INFO: Stop Scanning .....
15/11/2010 18.04.18 - INFO: Stop Scanning .....
15/11/2010 18.04.20 - INFO: Stop Scanning .....
15/11/2010 18.04.34 - INFO: Stop Scanning .....
15/11/2010 18.05.42 - INFO: Scanning in progress ....
15/11/2010 18.05.44 - INFO: Unsupported capability FeederLoaded
15/11/2010 18.05.49 - INFO: Stop Scanning .....
16/11/2010 8.17.14 - INFO: Stop Scanning .....
16/11/2010 9.13.33 - INFO: Stop Scanning .....
16/11/2010 9.14.19 - INFO: Scanning in progress ....
16/11/2010 9.14.30 - INFO: Stop Scanning .....
16/11/2010 9.14.36 - INFO: Stop Scanning .....
16/11/2010 9.19.45 - INFO: Stop Scanning .....
16/11/2010 9.21.25 - INFO: Stop Scanning .....
16/11/2010 9.21.58 - INFO: Stop Scanning .....
16/11/2010 9.22.00 - INFO: Stop Scanning .....
16/11/2010 9.22.33 - INFO: Stop Scanning .....
16/11/2010 9.22.33 - INFO: Stop Scanning .....
16/11/2010 9.22.33 - INFO: Stop Scanning .....
16/11/2010 9.23.24 - INFO: Stop Scanning .....
16/11/2010 9.23.38 - INFO: Stop Scanning .....
16/11/2010 9.23.47 - INFO: Stop Scanning .....
16/11/2010 9.23.54 - INFO: Stop Scanning .....
16/11/2010 9.24.06 - INFO: Stop Scanning .....
16/11/2010 9.24.36 - INFO: Stop Scanning .....
16/11/2010 9.24.38 - INFO: Stop Scanning .....
16/11/2010 9.26.32 - INFO: Stop Scanning .....
16/11/2010 9.26.47 - INFO: Stop Scanning .....
16/11/2010 9.27.58 - INFO: Stop Scanning .....
16/11/2010 9.28.44 - INFO: Stop Scanning .....
16/11/2010 9.29.16 - INFO: Stop Scanning .....
16/11/2010 9.29.23 - INFO: Stop Scanning .....
16/11/2010 9.29.29 - INFO: Stop Scanning .....
16/11/2010 9.29.32 - INFO: Stop Scanning .....
16/11/2010 9.33.41 - INFO: Stop Scanning .....
16/11/2010 9.34.16 - INFO: Stop Scanning .....
16/11/2010 9.34.36 - INFO: Stop Scanning .....
16/11/2010 9.34.50 - INFO: Stop Scanning .....
16/11/2010 9.35.06 - INFO: Stop Scanning .....
16/11/2010 9.35.31 - INFO: Stop Scanning .....
16/11/2010 9.36.06 - INFO: Stop Scanning .....
16/11/2010 9.36.26 - INFO: Stop Scanning .....
16/11/2010 9.36.56 - INFO: Stop Scanning .....
16/11/2010 9.40.22 - INFO: Stop Scanning .....
16/11/2010 9.40.34 - INFO: Stop Scanning .....
16/11/2010 9.52.56 - INFO: Stop Scanning .....
16/11/2010 9.53.40 - INFO: Stop Scanning .....
16/11/2010 9.53.46 - INFO: Stop Scanning .....
16/11/2010 9.54.41 - INFO: Stop Scanning .....
16/11/2010 9.56.20 - INFO: Stop Scanning .....
16/11/2010 9.56.49 - INFO: Stop Scanning .....
16/11/2010 9.56.51 - INFO: Stop Scanning .....
16/11/2010 9.57.17 - INFO: Stop Scanning .....
16/11/2010 9.57.51 - INFO: Stop Scanning .....
16/11/2010 9.59.11 - INFO: Stop Scanning .....
16/11/2010 9.59.55 - INFO: Stop Scanning .....
16/11/2010 10.00.17 - INFO: Stop Scanning .....
16/11/2010 10.01.03 - INFO: Stop Scanning .....
16/11/2010 10.01.04 - INFO: Stop Scanning .....
16/11/2010 10.01.20 - INFO: Stop Scanning .....
16/11/2010 10.01.34 - INFO: Stop Scanning .....
16/11/2010 10.01.53 - INFO: Stop Scanning .....
16/11/2010 10.01.56 - INFO: Stop Scanning .....
16/11/2010 10.01.57 - INFO: Stop Scanning .....
16/11/2010 10.02.06 - INFO: Stop Scanning .....
16/11/2010 10.02.36 - INFO: Stop Scanning .....
16/11/2010 10.02.46 - INFO: Stop Scanning .....
16/11/2010 10.03.19 - INFO: Stop Scanning .....
16/11/2010 10.03.34 - INFO: Stop Scanning .....
16/11/2010 10.04.38 - INFO: Stop Scanning .....
16/11/2010 10.05.00 - INFO: Stop Scanning .....
16/11/2010 10.05.51 - INFO: Stop Scanning .....
16/11/2010 10.06.11 - INFO: Scanning in progress ....
16/11/2010 10.06.21 - INFO: Stop Scanning .....
16/11/2010 10.06.22 - INFO: Stop Scanning .....
16/11/2010 10.07.31 - INFO: Stop Scanning .....
16/11/2010 10.10.29 - INFO: Stop Scanning .....
16/11/2010 10.11.04 - INFO: Stop Scanning .....
16/11/2010 10.11.04 - INFO: Stop Scanning .....
16/11/2010 10.11.06 - INFO: Stop Scanning .....
16/11/2010 10.11.19 - INFO: Stop Scanning .....
16/11/2010 10.11.36 - INFO: Stop Scanning .....
16/11/2010 10.11.45 - INFO: Stop Scanning .....
16/11/2010 10.11.47 - INFO: Stop Scanning .....
16/11/2010 10.24.58 - INFO: Stop Scanning .....
16/11/2010 10.26.17 - INFO: Stop Scanning .....
16/11/2010 10.32.05 - INFO: Stop Scanning .....
16/11/2010 10.35.15 - INFO: Stop Scanning .....
16/11/2010 10.36.23 - INFO: Stop Scanning .....
16/11/2010 10.38.14 - INFO: Stop Scanning .....
16/11/2010 10.38.14 - INFO: Stop Scanning .....
16/11/2010 10.38.16 - INFO: Stop Scanning .....
16/11/2010 10.38.37 - INFO: Stop Scanning .....
16/11/2010 10.38.37 - INFO: Stop Scanning .....
16/11/2010 10.38.51 - INFO: Stop Scanning .....
16/11/2010 10.40.10 - INFO: Stop Scanning .....
16/11/2010 10.40.20 - INFO: Stop Scanning .....
16/11/2010 10.41.04 - INFO: Stop Scanning .....
16/11/2010 10.41.27 - INFO: Stop Scanning .....
16/11/2010 10.41.27 - INFO: Stop Scanning .....
16/11/2010 10.41.39 - INFO: Stop Scanning .....
16/11/2010 10.41.54 - INFO: Stop Scanning .....
16/11/2010 10.42.21 - INFO: Stop Scanning .....
16/11/2010 10.42.47 - INFO: Stop Scanning .....
16/11/2010 10.43.17 - INFO: Stop Scanning .....
16/11/2010 10.43.17 - INFO: Stop Scanning .....
16/11/2010 10.43.33 - INFO: Stop Scanning .....
16/11/2010 10.43.59 - INFO: Stop Scanning .....
16/11/2010 10.48.12 - INFO: Stop Scanning .....
16/11/2010 10.48.24 - INFO: Scanning in progress ....
16/11/2010 10.48.26 - INFO: Unsupported capability FeederLoaded
16/11/2010 10.48.37 - INFO: Stop Scanning .....
16/11/2010 10.48.45 - INFO: Stop Scanning .....
16/11/2010 10.48.52 - INFO: Stop Scanning .....
16/11/2010 10.48.54 - INFO: Stop Scanning .....
19/11/2010 14.04.49 - INFO: Stop Scanning .....
19/11/2010 14.05.07 - INFO: Scanning in progress ....
19/11/2010 14.05.10 - INFO: Unsupported capability FeederLoaded
19/11/2010 14.05.15 - INFO: Stop Scanning .....
19/11/2010 14.05.54 - INFO: Scanning in progress ....
19/11/2010 14.05.56 - INFO: Unsupported capability FeederLoaded
19/11/2010 14.05.59 - INFO: Stop Scanning .....
19/11/2010 14.06.01 - INFO: Stop Scanning .....
19/11/2010 14.07.10 - INFO: Stop Scanning .....
19/11/2010 14.07.11 - INFO: Scanning in progress ....
19/11/2010 14.07.14 - INFO: Unsupported capability FeederLoaded
19/11/2010 14.07.18 - INFO: Stop Scanning .....
19/11/2010 14.07.19 - INFO: Stop Scanning .....
19/11/2010 14.08.03 - INFO: Stop Scanning .....
19/11/2010 14.08.04 - INFO: Scanning in progress ....
19/11/2010 14.08.07 - INFO: Unsupported capability FeederLoaded
19/11/2010 14.08.10 - INFO: Stop Scanning .....
19/11/2010 14.08.41 - INFO: Scanning in progress ....
19/11/2010 14.08.43 - INFO: Unsupported capability FeederLoaded
19/11/2010 14.08.47 - INFO: Stop Scanning .....
19/11/2010 14.38.27 - INFO: Scanning in progress ....
19/11/2010 14.38.30 - INFO: Unsupported capability FeederLoaded
19/11/2010 14.38.40 - INFO: Stop Scanning .....
19/11/2010 14.40.40 - INFO: Stop Scanning .....
19/11/2010 14.40.43 - INFO: Stop Scanning .....
19/11/2010 14.40.48 - INFO: Scanning in progress ....
19/11/2010 14.40.51 - INFO: Unsupported capability FeederLoaded
19/11/2010 14.40.55 - INFO: Stop Scanning .....
22/11/2010 10.23.25 - INFO: Stop Scanning .....
22/11/2010 10.23.34 - INFO: Scanning in progress ....
22/11/2010 10.23.37 - INFO: Unsupported capability FeederLoaded
22/11/2010 10.23.45 - INFO: Stop Scanning .....
22/11/2010 10.23.58 - INFO: Stop Scanning .....
22/11/2010 11.59.51 - INFO: Stop Scanning .....
22/11/2010 11.59.55 - INFO: Scanning in progress ....
22/11/2010 11.59.59 - INFO: Unsupported capability FeederLoaded
22/11/2010 12.00.10 - INFO: Stop Scanning .....
22/11/2010 12.04.08 - INFO: Stop Scanning .....
22/11/2010 12.04.10 - INFO: Scanning in progress ....
22/11/2010 12.04.12 - INFO: Unsupported capability FeederLoaded
22/11/2010 12.04.17 - INFO: Stop Scanning .....
22/11/2010 12.10.19 - INFO: Stop Scanning .....
22/11/2010 12.10.22 - INFO: Scanning in progress ....
22/11/2010 12.10.25 - INFO: Unsupported capability FeederLoaded
22/11/2010 12.10.30 - INFO: Stop Scanning .....
22/11/2010 12.10.52 - INFO: Stop Scanning .....
22/11/2010 12.10.53 - INFO: Scanning in progress ....
22/11/2010 12.10.55 - INFO: Unsupported capability FeederLoaded
22/11/2010 12.10.58 - INFO: Stop Scanning .....
22/11/2010 14.55.04 - INFO: Stop Scanning .....
22/11/2010 14.55.08 - INFO: Scanning in progress ....
22/11/2010 14.55.12 - INFO: Unsupported capability FeederLoaded
22/11/2010 14.55.23 - INFO: Stop Scanning .....
22/11/2010 14.58.46 - INFO: Scanning in progress ....
22/11/2010 14.58.49 - INFO: Unsupported capability FeederLoaded
22/11/2010 14.58.53 - INFO: Stop Scanning .....
22/11/2010 14.59.04 - INFO: Stop Scanning .....
22/11/2010 14.59.08 - INFO: Scanning in progress ....
22/11/2010 14.59.10 - INFO: Unsupported capability FeederLoaded
22/11/2010 14.59.14 - INFO: Stop Scanning .....
22/11/2010 14.59.15 - INFO: Stop Scanning .....
22/11/2010 14.59.15 - INFO: Stop Scanning .....
22/11/2010 15.54.25 - INFO: Stop Scanning .....
22/11/2010 15.54.30 - INFO: Scanning in progress ....
22/11/2010 15.54.33 - INFO: Unsupported capability FeederLoaded
22/11/2010 15.54.44 - INFO: Stop Scanning .....
22/11/2010 15.56.32 - INFO: Stop Scanning .....
22/11/2010 15.56.36 - INFO: Scanning in progress ....
22/11/2010 15.56.38 - INFO: Unsupported capability FeederLoaded
22/11/2010 15.56.43 - INFO: Stop Scanning .....
22/11/2010 15.59.00 - INFO: Stop Scanning .....
22/11/2010 15.59.02 - INFO: Scanning in progress ....
22/11/2010 15.59.05 - INFO: Unsupported capability FeederLoaded
22/11/2010 15.59.10 - INFO: Stop Scanning .....
22/11/2010 16.03.07 - INFO: Stop Scanning .....
22/11/2010 16.03.09 - INFO: Scanning in progress ....
22/11/2010 16.03.12 - INFO: Unsupported capability FeederLoaded
22/11/2010 16.03.16 - INFO: Stop Scanning .....
22/11/2010 16.08.57 - INFO: Stop Scanning .....
22/11/2010 16.09.00 - INFO: Scanning in progress ....
22/11/2010 16.09.03 - INFO: Unsupported capability FeederLoaded
22/11/2010 16.09.08 - INFO: Stop Scanning .....
22/11/2010 16.10.38 - INFO: Stop Scanning .....
22/11/2010 16.10.42 - INFO: Scanning in progress ....
22/11/2010 16.10.44 - INFO: Unsupported capability FeederLoaded
22/11/2010 16.10.49 - INFO: Stop Scanning .....
22/11/2010 16.12.12 - INFO: Scanning in progress ....
22/11/2010 16.12.14 - INFO: Unsupported capability FeederLoaded
22/11/2010 16.12.18 - INFO: Stop Scanning .....
22/11/2010 16.23.58 - INFO: Stop Scanning .....
22/11/2010 16.23.59 - INFO: Scanning in progress ....
22/11/2010 16.24.02 - INFO: Unsupported capability FeederLoaded
22/11/2010 16.24.06 - INFO: Stop Scanning .....
22/11/2010 16.26.14 - INFO: Scanning in progress ....
22/11/2010 16.26.17 - INFO: Unsupported capability FeederLoaded
22/11/2010 16.26.21 - INFO: Stop Scanning .....
22/11/2010 16.29.54 - INFO: Scanning in progress ....
22/11/2010 16.29.56 - INFO: Unsupported capability FeederLoaded
22/11/2010 16.30.01 - INFO: Stop Scanning .....
22/11/2010 16.31.49 - INFO: Scanning in progress ....
22/11/2010 16.31.52 - INFO: Unsupported capability FeederLoaded
22/11/2010 16.31.56 - INFO: Stop Scanning .....
22/11/2010 16.35.09 - INFO: Scanning in progress ....
22/11/2010 16.35.12 - INFO: Unsupported capability FeederLoaded
22/11/2010 16.35.16 - INFO: Stop Scanning .....
22/11/2010 16.38.25 - INFO: Scanning in progress ....
22/11/2010 16.38.27 - INFO: Unsupported capability FeederLoaded
22/11/2010 16.38.31 - INFO: Stop Scanning .....
22/11/2010 16.55.33 - INFO: Scanning in progress ....
22/11/2010 16.55.36 - INFO: Unsupported capability FeederLoaded
22/11/2010 16.55.47 - INFO: Stop Scanning .....
22/11/2010 16.58.23 - INFO: Scanning in progress ....
22/11/2010 16.58.26 - INFO: Unsupported capability FeederLoaded
22/11/2010 16.58.30 - INFO: Stop Scanning .....
22/11/2010 16.58.42 - INFO: Stop Scanning .....
22/11/2010 16.58.42 - INFO: Stop Scanning .....
22/11/2010 16.58.43 - INFO: Scanning in progress ....
22/11/2010 16.58.45 - INFO: Unsupported capability FeederLoaded
22/11/2010 16.58.48 - INFO: Stop Scanning .....
22/11/2010 16.58.48 - INFO: Stop Scanning .....
22/11/2010 16.59.09 - INFO: Stop Scanning .....
22/11/2010 16.59.10 - INFO: Scanning in progress ....
22/11/2010 16.59.12 - INFO: Unsupported capability FeederLoaded
22/11/2010 16.59.16 - INFO: Stop Scanning .....
22/11/2010 16.59.16 - INFO: Stop Scanning .....
22/11/2010 16.59.47 - INFO: Stop Scanning .....
22/11/2010 16.59.47 - INFO: Scanning in progress ....
22/11/2010 16.59.49 - INFO: Unsupported capability FeederLoaded
22/11/2010 16.59.53 - INFO: Stop Scanning .....
22/11/2010 17.05.47 - INFO: Scanning in progress ....
22/11/2010 17.05.50 - INFO: Unsupported capability FeederLoaded
22/11/2010 17.05.54 - INFO: Stop Scanning .....
22/11/2010 17.07.04 - INFO: Scanning in progress ....
22/11/2010 17.07.06 - INFO: Unsupported capability FeederLoaded
22/11/2010 17.07.11 - INFO: Stop Scanning .....
22/11/2010 17.34.05 - INFO: Stop Scanning .....
22/11/2010 17.34.07 - INFO: Scanning in progress ....
22/11/2010 17.34.09 - INFO: Unsupported capability FeederLoaded
22/11/2010 17.34.20 - INFO: Stop Scanning .....
22/11/2010 17.35.51 - INFO: Scanning in progress ....
22/11/2010 17.35.54 - INFO: Unsupported capability FeederLoaded
22/11/2010 17.35.59 - INFO: Stop Scanning .....
22/11/2010 17.38.29 - INFO: Scanning in progress ....
22/11/2010 17.38.31 - INFO: Unsupported capability FeederLoaded
22/11/2010 17.38.36 - INFO: Stop Scanning .....
22/11/2010 17.41.16 - INFO: Scanning in progress ....
22/11/2010 17.41.19 - INFO: Unsupported capability FeederLoaded
22/11/2010 17.41.23 - INFO: Stop Scanning .....
22/11/2010 17.49.27 - INFO: Stop Scanning .....
22/11/2010 17.49.29 - INFO: Scanning in progress ....
22/11/2010 17.49.32 - INFO: Unsupported capability FeederLoaded
22/11/2010 17.49.36 - INFO: Stop Scanning .....
22/11/2010 17.50.03 - INFO: Stop Scanning .....
22/11/2010 17.50.04 - INFO: Scanning in progress ....
22/11/2010 17.50.06 - INFO: Unsupported capability FeederLoaded
22/11/2010 17.50.09 - INFO: Stop Scanning .....
22/11/2010 17.51.10 - INFO: Stop Scanning .....
22/11/2010 17.51.11 - INFO: Scanning in progress ....
22/11/2010 17.51.13 - INFO: Unsupported capability FeederLoaded
22/11/2010 17.51.17 - INFO: Stop Scanning .....
22/11/2010 17.52.32 - INFO: Scanning in progress ....
22/11/2010 17.52.34 - INFO: Unsupported capability FeederLoaded
22/11/2010 17.52.39 - INFO: Stop Scanning .....
22/11/2010 17.52.47 - INFO: Stop Scanning .....
22/11/2010 17.52.48 - INFO: Stop Scanning .....
22/11/2010 17.52.51 - INFO: Scanning in progress ....
22/11/2010 17.52.53 - INFO: Unsupported capability FeederLoaded
22/11/2010 17.52.56 - INFO: Stop Scanning .....
22/11/2010 17.52.57 - INFO: Stop Scanning .....
23/11/2010 11.57.34 - INFO: Scanning in progress ....
23/11/2010 11.57.38 - INFO: Unsupported capability FeederLoaded
23/11/2010 11.57.49 - INFO: Stop Scanning .....
23/11/2010 11.57.50 - INFO: Stop Scanning .....
23/11/2010 11.58.28 - INFO: Scanning in progress ....
23/11/2010 11.58.32 - INFO: Unsupported capability FeederLoaded
23/11/2010 11.58.35 - INFO: Stop Scanning .....
23/11/2010 11.59.02 - INFO: Stop Scanning .....
23/11/2010 11.59.03 - INFO: Scanning in progress ....
23/11/2010 11.59.04 - INFO: Unsupported capability FeederLoaded
23/11/2010 11.59.07 - INFO: Stop Scanning .....
23/11/2010 12.01.53 - INFO: Stop Scanning .....
23/11/2010 12.01.57 - INFO: Scanning in progress ....
23/11/2010 12.02.00 - INFO: Unsupported capability FeederLoaded
23/11/2010 12.02.04 - INFO: Stop Scanning .....
23/11/2010 12.02.45 - INFO: Stop Scanning .....
23/11/2010 12.03.01 - INFO: Scanning in progress ....
23/11/2010 12.03.03 - INFO: Unsupported capability FeederLoaded
23/11/2010 12.03.03 - INFO: Failed to set capability.
23/11/2010 12.03.07 - INFO: Stop Scanning .....
23/11/2010 12.03.09 - INFO: Stop Scanning .....
23/11/2010 12.03.20 - INFO: Stop Scanning .....
23/11/2010 12.17.22 - INFO: Stop Scanning .....
23/11/2010 12.17.27 - INFO: Scanning in progress ....
23/11/2010 12.17.30 - INFO: Unsupported capability FeederLoaded
23/11/2010 12.17.35 - INFO: Stop Scanning .....
23/11/2010 12.18.10 - INFO: Scanning in progress ....
23/11/2010 12.18.12 - INFO: Unsupported capability FeederLoaded
23/11/2010 12.18.12 - INFO: Failed to set capability.
23/11/2010 12.18.16 - INFO: Stop Scanning .....
23/11/2010 12.18.17 - INFO: Stop Scanning .....
23/11/2010 12.18.37 - INFO: Stop Scanning .....
23/11/2010 12.18.56 - INFO: Stop Scanning .....
23/11/2010 12.18.56 - INFO: Stop Scanning .....
23/11/2010 12.18.59 - INFO: Scanning in progress ....
23/11/2010 12.19.01 - INFO: Unsupported capability FeederLoaded
23/11/2010 12.19.01 - INFO: Failed to set capability.
23/11/2010 12.19.05 - INFO: Stop Scanning .....
23/11/2010 12.19.30 - INFO: Stop Scanning .....
23/11/2010 12.20.15 - INFO: Scanning in progress ....
23/11/2010 12.20.17 - INFO: Unsupported capability FeederLoaded
23/11/2010 12.20.21 - INFO: Stop Scanning .....
23/11/2010 12.20.53 - INFO: Scanning in progress ....
23/11/2010 12.20.55 - INFO: Unsupported capability FeederLoaded
23/11/2010 12.20.58 - INFO: Stop Scanning .....
23/11/2010 12.22.02 - INFO: Stop Scanning .....
23/11/2010 12.22.05 - INFO: Scanning in progress ....
23/11/2010 12.22.08 - INFO: Unsupported capability FeederLoaded
23/11/2010 12.22.12 - INFO: Stop Scanning .....
23/11/2010 12.22.12 - INFO: Stop Scanning .....
23/11/2010 12.22.37 - INFO: Stop Scanning .....
23/11/2010 12.22.37 - INFO: Scanning in progress ....
23/11/2010 12.22.39 - INFO: Unsupported capability FeederLoaded
23/11/2010 12.22.42 - INFO: Stop Scanning .....
23/11/2010 12.35.03 - INFO: Stop Scanning .....
23/11/2010 12.35.11 - INFO: Scanning in progress ....
23/11/2010 12.35.13 - INFO: Unsupported capability FeederLoaded
23/11/2010 12.35.17 - INFO: Stop Scanning .....
23/11/2010 12.37.41 - INFO: Stop Scanning .....
23/11/2010 12.37.49 - INFO: Scanning in progress ....
23/11/2010 12.37.51 - INFO: Unsupported capability FeederLoaded
23/11/2010 12.37.55 - INFO: Stop Scanning .....
23/11/2010 12.42.41 - INFO: Stop Scanning .....
23/11/2010 12.42.51 - INFO: Stop Scanning .....
23/11/2010 12.47.54 - INFO: Scanning in progress ....
23/11/2010 12.47.56 - INFO: Unsupported capability FeederLoaded
23/11/2010 12.48.00 - INFO: Stop Scanning .....
23/11/2010 12.48.08 - INFO: Stop Scanning .....
23/11/2010 13.00.29 - INFO: Stop Scanning .....
23/11/2010 13.00.50 - INFO: Stop Scanning .....
23/11/2010 17.10.16 - INFO: Stop Scanning .....
